<?xml version="1.0" encoding="UTF-8" standalone="no"?>
<svg xmlns="http://www.w3.org/2000/svg" xmlns:xlink="http://www.w3.org/1999/xlink" contentStyleType="text/css" height="331.25px" preserveAspectRatio="none" style="width:327px;height:331px;" version="1.1" viewBox="0 0 327 331" width="327.0833px" zoomAndPan="magnify"><defs><linearGradient id="g5gr02qc06xnh0" x1="50%" x2="50%" y1="0%" y2="100%"><stop offset="0%" stop-color="#D3F198"/><stop offset="100%" stop-color="#B5E853"/></linearGradient></defs><g><!--MD5=[4685485b66b78e2e24b4792d242705f7]
class Component1--><g id="elem_Component1"><rect codeLine="2" fill="url(#g5gr02qc06xnh0)" height="74.5931" id="Component1" rx="20.8333" ry="20.8333" style="stroke:#D3F198;stroke-width:1.0416666666666667;" width="117.7083" x="37.5" y="131.25"/><rect fill="url(#g5gr02qc06xnh0)" height="34.1715" rx="20.8333" ry="20.8333" style="stroke:url(#g5gr02qc06xnh0);stroke-width:1.0416666666666667;" width="117.7083" x="37.5" y="131.25"/><rect fill="url(#g5gr02qc06xnh0)" height="20.8333" style="stroke:url(#g5gr02qc06xnh0);stroke-width:1.0416666666666667;" width="117.7083" x="37.5" y="144.5882"/><rect codeLine="2" fill="none" height="74.5931" id="Component1" rx="20.8333" ry="20.8333" style="stroke:#D3F198;stroke-width:1.0416666666666667;" width="117.7083" x="37.5" y="131.25"/><ellipse cx="52.0833" cy="148.3358" fill="none" rx="10.4167" ry="10.4167" style="stroke:#6D8B32;stroke-width:1.0416666666666667;"/><path d="M54.0202,144.9504 C53.3366,144.6248 52.8971,144.5272 52.2461,144.5272 C50.3255,144.5272 48.8444,146.0409 48.8444,148.0428 L48.8444,148.8729 C48.8444,150.7772 50.4069,152.1606 52.5228,152.1606 C53.418,152.1606 54.2806,151.9328 54.8177,151.5259 C55.2572,151.2329 55.485,150.9074 55.485,150.6144 C55.485,150.2889 55.1921,149.9959 54.8665,149.9959 C54.7038,149.9959 54.5573,150.061 54.4108,150.1912 C54.069,150.5493 54.069,150.5493 53.9388,150.6144 C53.6296,150.8097 53.125,150.9074 52.5553,150.9074 C51.0579,150.9074 50.0977,150.0936 50.0977,148.8403 L50.0977,148.0428 C50.0977,146.7244 51.0254,145.7642 52.2949,145.7642 C52.7181,145.7642 53.1738,145.8781 53.5156,146.0734 C53.8737,146.2687 54.0039,146.4315 54.069,146.7244 C54.1178,147.0337 54.1341,147.1151 54.2318,147.2127 C54.3294,147.3267 54.5085,147.3918 54.6712,147.3918 C54.8828,147.3918 55.0618,147.2941 55.1921,147.1313 C55.2734,147.0174 55.306,146.8872 55.306,146.5617 L55.306,145.52 C55.306,145.2108 55.2897,145.1131 55.2083,144.9992 C55.0944,144.8039 54.8991,144.6899 54.6712,144.6899 C54.4596,144.6899 54.3132,144.7713 54.1504,144.9992 L54.0202,144.9504 Z " fill="#151515"/><text fill="#151515" font-family="&quot;Verdana&quot;" font-size="11.4583" lengthAdjust="spacing" textLength="76.0417" x="70.8333" y="152.3026">Component1</text><line style="stroke:#D3F198;stroke-width:1.0416666666666667;" x1="38.5417" x2="154.1667" y1="165.4215" y2="165.4215"/><line style="stroke:#D3F198;stroke-width:1.0416666666666667;" x1="38.5417" x2="154.1667" y1="173.7549" y2="173.7549"/><text fill="#151515" font-family="&quot;Verdana&quot;" font-size="11.4583" lengthAdjust="spacing" textLength="65.625" x="48.9583" y="193.7658">usecase1()</text></g><!--MD5=[db4bc597ef7cc057e5d7dfcb5712f48b]
class Component2--><g id="elem_Component2"><rect codeLine="6" fill="url(#g5gr02qc06xnh0)" height="74.5931" id="Component2" rx="20.8333" ry="20.8333" style="stroke:#D3F198;stroke-width:1.0416666666666667;" width="117.7083" x="196.875" y="131.25"/><rect fill="url(#g5gr02qc06xnh0)" height="34.1715" rx="20.8333" ry="20.8333" style="stroke:url(#g5gr02qc06xnh0);stroke-width:1.0416666666666667;" width="117.7083" x="196.875" y="131.25"/><rect fill="url(#g5gr02qc06xnh0)" height="20.8333" style="stroke:url(#g5gr02qc06xnh0);stroke-width:1.0416666666666667;" width="117.7083" x="196.875" y="144.5882"/><rect codeLine="6" fill="none" height="74.5931" id="Component2" rx="20.8333" ry="20.8333" style="stroke:#D3F198;stroke-width:1.0416666666666667;" width="117.7083" x="196.875" y="131.25"/><ellipse cx="211.4583" cy="148.3358" fill="none" rx="10.4167" ry="10.4167" style="stroke:#6D8B32;stroke-width:1.0416666666666667;"/><path d="M213.3952,144.9504 C212.7116,144.6248 212.2721,144.5272 211.6211,144.5272 C209.7005,144.5272 208.2194,146.0409 208.2194,148.0428 L208.2194,148.8729 C208.2194,150.7772 209.7819,152.1606 211.8978,152.1606 C212.793,152.1606 213.6556,151.9328 214.1927,151.5259 C214.6322,151.2329 214.86,150.9074 214.86,150.6144 C214.86,150.2889 214.5671,149.9959 214.2415,149.9959 C214.0788,149.9959 213.9323,150.061 213.7858,150.1912 C213.444,150.5493 213.444,150.5493 213.3138,150.6144 C213.0046,150.8097 212.5,150.9074 211.9303,150.9074 C210.4329,150.9074 209.4727,150.0936 209.4727,148.8403 L209.4727,148.0428 C209.4727,146.7244 210.4004,145.7642 211.6699,145.7642 C212.0931,145.7642 212.5488,145.8781 212.8906,146.0734 C213.2487,146.2687 213.3789,146.4315 213.444,146.7244 C213.4928,147.0337 213.5091,147.1151 213.6068,147.2127 C213.7044,147.3267 213.8835,147.3918 214.0462,147.3918 C214.2578,147.3918 214.4368,147.2941 214.5671,147.1313 C214.6484,147.0174 214.681,146.8872 214.681,146.5617 L214.681,145.52 C214.681,145.2108 214.6647,145.1131 214.5833,144.9992 C214.4694,144.8039 214.2741,144.6899 214.0462,144.6899 C213.8346,144.6899 213.6882,144.7713 213.5254,144.9992 L213.3952,144.9504 Z " fill="#151515"/><text fill="#151515" font-family="&quot;Verdana&quot;" font-size="11.4583" lengthAdjust="spacing" textLength="76.0417" x="230.2083" y="152.3026">Component2</text><line style="stroke:#D3F198;stroke-width:1.0416666666666667;" x1="197.9167" x2="313.5417" y1="165.4215" y2="165.4215"/><line style="stroke:#D3F198;stroke-width:1.0416666666666667;" x1="197.9167" x2="313.5417" y1="173.7549" y2="173.7549"/><text fill="#151515" font-family="&quot;Verdana&quot;" font-size="11.4583" lengthAdjust="spacing" textLength="65.625" x="208.3333" y="193.7658">usecase2()</text></g><!--MD5=[09ce52be0ee7de43c61b6e2d59bf108b]
class Person--><g id="elem_Person"><rect codeLine="9" fill="url(#g5gr02qc06xnh0)" height="50.8382" id="Person" rx="20.8333" ry="20.8333" style="stroke:#D3F198;stroke-width:1.0416666666666667;" width="81.25" x="134.8958" y="268.75"/><rect fill="url(#g5gr02qc06xnh0)" height="34.1715" rx="20.8333" ry="20.8333" style="stroke:url(#g5gr02qc06xnh0);stroke-width:1.0416666666666667;" width="81.25" x="134.8958" y="268.75"/><rect fill="url(#g5gr02qc06xnh0)" height="20.8333" style="stroke:url(#g5gr02qc06xnh0);stroke-width:1.0416666666666667;" width="81.25" x="134.8958" y="282.0882"/><rect codeLine="9" fill="none" height="50.8382" id="Person" rx="20.8333" ry="20.8333" style="stroke:#D3F198;stroke-width:1.0416666666666667;" width="81.25" x="134.8958" y="268.75"/><ellipse cx="149.4792" cy="285.8358" fill="none" rx="10.4167" ry="10.4167" style="stroke:#6D8B32;stroke-width:1.0416666666666667;"/><path d="M151.416,282.4504 C150.7324,282.1248 150.293,282.0272 149.6419,282.0272 C147.7214,282.0272 146.2402,283.5409 146.2402,285.5428 L146.2402,286.3729 C146.2402,288.2772 147.8027,289.6606 149.9186,289.6606 C150.8138,289.6606 151.6764,289.4328 152.2135,289.0259 C152.653,288.7329 152.8809,288.4074 152.8809,288.1144 C152.8809,287.7889 152.5879,287.4959 152.2624,287.4959 C152.0996,287.4959 151.9531,287.561 151.8066,287.6912 C151.4648,288.0493 151.4648,288.0493 151.3346,288.1144 C151.0254,288.3097 150.5208,288.4074 149.9512,288.4074 C148.4538,288.4074 147.4935,287.5936 147.4935,286.3403 L147.4935,285.5428 C147.4935,284.2244 148.4212,283.2642 149.6908,283.2642 C150.1139,283.2642 150.5697,283.3781 150.9115,283.5734 C151.2695,283.7687 151.3997,283.9315 151.4648,284.2244 C151.5137,284.5337 151.5299,284.6151 151.6276,284.7127 C151.7253,284.8267 151.9043,284.8918 152.0671,284.8918 C152.2786,284.8918 152.4577,284.7941 152.5879,284.6313 C152.6693,284.5174 152.7018,284.3872 152.7018,284.0617 L152.7018,283.02 C152.7018,282.7108 152.6855,282.6131 152.6042,282.4992 C152.4902,282.3039 152.2949,282.1899 152.0671,282.1899 C151.8555,282.1899 151.709,282.2713 151.5462,282.4992 L151.416,282.4504 Z " fill="#151515"/><text fill="#151515" font-family="&quot;Verdana&quot;" font-size="11.4583" lengthAdjust="spacing" textLength="39.5833" x="168.2292" y="289.8026">Person</text><line style="stroke:#D3F198;stroke-width:1.0416666666666667;" x1="135.9375" x2="215.1042" y1="302.9215" y2="302.9215"/><line style="stroke:#D3F198;stroke-width:1.0416666666666667;" x1="135.9375" x2="215.1042" y1="311.2549" y2="311.2549"/></g><!--MD5=[b1b44ff8609e685d76193962b7f2e467]
class RestHelper--><g id="elem_RestHelper"><rect codeLine="10" fill="url(#g5gr02qc06xnh0)" height="50.8382" id="RestHelper" rx="20.8333" ry="20.8333" style="stroke:#D3F198;stroke-width:1.0416666666666667;" width="107.2917" x="205.2083" y="17.7083"/><rect fill="url(#g5gr02qc06xnh0)" height="34.1715" rx="20.8333" ry="20.8333" style="stroke:url(#g5gr02qc06xnh0);stroke-width:1.0416666666666667;" width="107.2917" x="205.2083" y="17.7083"/><rect fill="url(#g5gr02qc06xnh0)" height="20.8333" style="stroke:url(#g5gr02qc06xnh0);stroke-width:1.0416666666666667;" width="107.2917" x="205.2083" y="31.0465"/><rect codeLine="10" fill="none" height="50.8382" id="RestHelper" rx="20.8333" ry="20.8333" style="stroke:#D3F198;stroke-width:1.0416666666666667;" width="107.2917" x="205.2083" y="17.7083"/><ellipse cx="219.7917" cy="34.7941" fill="none" rx="10.4167" ry="10.4167" style="stroke:#6D8B32;stroke-width:1.0416666666666667;"/><path d="M221.7285,31.4087 C221.0449,31.0832 220.6055,30.9855 219.9544,30.9855 C218.0339,30.9855 216.5527,32.4992 216.5527,34.5011 L216.5527,35.3312 C216.5527,37.2355 218.1152,38.619 220.2311,38.619 C221.1263,38.619 221.9889,38.3911 222.526,37.9842 C222.9655,37.6912 223.1934,37.3657 223.1934,37.0728 C223.1934,36.7472 222.9004,36.4543 222.5749,36.4543 C222.4121,36.4543 222.2656,36.5194 222.1191,36.6496 C221.7773,37.0076 221.7773,37.0076 221.6471,37.0728 C221.3379,37.2681 220.8333,37.3657 220.2637,37.3657 C218.7663,37.3657 217.806,36.5519 217.806,35.2987 L217.806,34.5011 C217.806,33.1828 218.7337,32.2225 220.0033,32.2225 C220.4264,32.2225 220.8822,32.3364 221.224,32.5317 C221.582,32.7271 221.7122,32.8898 221.7773,33.1828 C221.8262,33.492 221.8424,33.5734 221.9401,33.6711 C222.0378,33.785 222.2168,33.8501 222.3796,33.8501 C222.5911,33.8501 222.7702,33.7524 222.9004,33.5897 C222.9818,33.4757 223.0143,33.3455 223.0143,33.02 L223.0143,31.9784 C223.0143,31.6691 222.998,31.5715 222.9167,31.4575 C222.8027,31.2622 222.6074,31.1483 222.3796,31.1483 C222.168,31.1483 222.0215,31.2297 221.8587,31.4575 L221.7285,31.4087 Z " fill="#151515"/><text fill="#151515" font-family="&quot;Verdana&quot;" font-size="11.4583" lengthAdjust="spacing" textLength="65.625" x="238.5417" y="38.7609">RestHelper</text><line style="stroke:#D3F198;stroke-width:1.0416666666666667;" x1="206.25" x2="311.4583" y1="51.8799" y2="51.8799"/><line style="stroke:#D3F198;stroke-width:1.0416666666666667;" x1="206.25" x2="311.4583" y1="60.2132" y2="60.2132"/></g><!--MD5=[c8dbb12f6834845164c8d9f917581b9c]
class DataAccessHelper--><g id="elem_DataAccessHelper"><rect codeLine="11" fill="url(#g5gr02qc06xnh0)" height="50.8382" id="DataAccessHelper" rx="20.8333" ry="20.8333" style="stroke:#D3F198;stroke-width:1.0416666666666667;" width="151.0417" x="17.7083" y="17.7083"/><rect fill="url(#g5gr02qc06xnh0)" height="34.1715" rx="20.8333" ry="20.8333" style="stroke:url(#g5gr02qc06xnh0);stroke-width:1.0416666666666667;" width="151.0417" x="17.7083" y="17.7083"/><rect fill="url(#g5gr02qc06xnh0)" height="20.8333" style="stroke:url(#g5gr02qc06xnh0);stroke-width:1.0416666666666667;" width="151.0417" x="17.7083" y="31.0465"/><rect codeLine="11" fill="none" height="50.8382" id="DataAccessHelper" rx="20.8333" ry="20.8333" style="stroke:#D3F198;stroke-width:1.0416666666666667;" width="151.0417" x="17.7083" y="17.7083"/><ellipse cx="32.2917" cy="34.7941" fill="none" rx="10.4167" ry="10.4167" style="stroke:#6D8B32;stroke-width:1.0416666666666667;"/><path d="M34.2285,31.4087 C33.5449,31.0832 33.1055,30.9855 32.4544,30.9855 C30.5339,30.9855 29.0527,32.4992 29.0527,34.5011 L29.0527,35.3312 C29.0527,37.2355 30.6152,38.619 32.7311,38.619 C33.6263,38.619 34.4889,38.3911 35.026,37.9842 C35.4655,37.6912 35.6934,37.3657 35.6934,37.0728 C35.6934,36.7472 35.4004,36.4543 35.0749,36.4543 C34.9121,36.4543 34.7656,36.5194 34.6191,36.6496 C34.2773,37.0076 34.2773,37.0076 34.1471,37.0728 C33.8379,37.2681 33.3333,37.3657 32.7637,37.3657 C31.2663,37.3657 30.306,36.5519 30.306,35.2987 L30.306,34.5011 C30.306,33.1828 31.2337,32.2225 32.5033,32.2225 C32.9264,32.2225 33.3822,32.3364 33.724,32.5317 C34.082,32.7271 34.2122,32.8898 34.2773,33.1828 C34.3262,33.492 34.3424,33.5734 34.4401,33.6711 C34.5378,33.785 34.7168,33.8501 34.8796,33.8501 C35.0911,33.8501 35.2702,33.7524 35.4004,33.5897 C35.4818,33.4757 35.5143,33.3455 35.5143,33.02 L35.5143,31.9784 C35.5143,31.6691 35.498,31.5715 35.4167,31.4575 C35.3027,31.2622 35.1074,31.1483 34.8796,31.1483 C34.668,31.1483 34.5215,31.2297 34.3587,31.4575 L34.2285,31.4087 Z " fill="#151515"/><text fill="#151515" font-family="&quot;Verdana&quot;" font-size="11.4583" lengthAdjust="spacing" textLength="109.375" x="51.0417" y="38.7609">DataAccessHelper</text><line style="stroke:#D3F198;stroke-width:1.0416666666666667;" x1="18.75" x2="167.7083" y1="51.8799" y2="51.8799"/><line style="stroke:#D3F198;stroke-width:1.0416666666666667;" x1="18.75" x2="167.7083" y1="60.2132" y2="60.2132"/></g><!--MD5=[a31efd8ba3b5d20ff9f0ac79263d6671]
link Component1 to Person--><g id="link_Component1_Person"><path codeLine="13" d="M119.8924,206.4927 C131.6406,224.8113 145.6594,246.6692 156.6844,263.8596 " fill="none" id="Component1-to-Person" style="stroke:#B5E853;stroke-width:3.125;"/><polygon fill="#B5E853" points="159.7104,268.5776,158.1563,258.4368,156.8986,264.1935,151.1418,262.9357,159.7104,268.5776" style="stroke:#B5E853;stroke-width:3.125;"/></g><!--MD5=[461eb49602c7e224bb004ddde0b776ef]
link Component2 to Person--><g id="link_Component2_Person"><path codeLine="14" d="M231.8813,206.4927 C219.9781,224.8113 205.775,246.6692 194.6052,263.8596 " fill="none" id="Component2-to-Person" style="stroke:#B5E853;stroke-width:3.125;"/><polygon fill="#B5E853" points="191.5396,268.5776,200.1414,262.9864,194.3773,264.2102,193.1535,258.4461,191.5396,268.5776" style="stroke:#B5E853;stroke-width:3.125;"/></g><!--MD5=[896e8fda2f87cf94918114b78d3609d4]
reverse link RestHelper to Component2--><g id="link_RestHelper_Component2"><path codeLine="15" d="M258.0875,74.5448 C257.6573,91.5552 257.1167,112.9156 256.6615,130.8896 " fill="none" id="RestHelper-backto-Component2" style="stroke:#B5E853;stroke-width:3.125;"/><polygon fill="#B5E853" points="258.2292,68.9531,253.8281,78.2204,258.0982,74.1598,262.1588,78.4299,258.2292,68.9531" style="stroke:#B5E853;stroke-width:3.125;"/></g><!--MD5=[93a7b05e96c88935fd55256f881fd7eb]
reverse link DataAccessHelper to Component1--><g id="link_DataAccessHelper_Component1"><path codeLine="16" d="M93.9956,74.5448 C94.4263,91.5552 94.967,112.9156 95.4221,130.8896 " fill="none" id="DataAccessHelper-backto-Component1" style="stroke:#B5E853;stroke-width:3.125;"/><polygon fill="#B5E853" points="93.8541,68.9531,89.9244,78.4299,93.985,74.1598,98.2551,78.2204,93.8541,68.9531" style="stroke:#B5E853;stroke-width:3.125;"/></g><!--MD5=[f483053caf7d5dfd1b00318dbe11131a]
@startuml
!theme hacker
class Component1 {
  usecase1()
}

class  Component2{
  usecase2()
}
class Person
class RestHelper
class DataAccessHelper

Component1 - -> Person
Component2 - -> Person
Component2 -up-> RestHelper
Component1 -up-> DataAccessHelper
@enduml

@startuml



skinparam BackgroundColor transparent
skinparam useBetaStyle false






<style>
  root {
    BackgroundColor transparent
    FontColor #151515
    HyperLinkColor $ORANGE
    LineColor #6d8b32
    LineThickness 1
    Margin 10
    Padding 6
    Shadowing 0.0
  }
  node {
   Padding 15
   roundcorner 20
   BackgroundColor #b5e853-#6d8b32
  }
  caption {
    LineThickness 0
  }
  footer {
    LineThickness 0
  }
  groupHeader {
    BackgroundColor #6a9fb5
    FontColor #aa759f
    FontStyle bold
  }
  header {
    LineThickness 0
  }
  referenceHeader {
    BackgroundColor transparent
    FontColor #eaeaea
    FontStyle bold
  }
  separator {
    BackgroundColor $FGCOLOR
    FontColor transparent
    FontStyle bold
  }
  title {
	FontSize 20
	BorderRoundCorner            8
	BorderThickness 	         1
	BackgroundColor  #88b2c4-#6a9fb5
	FontColor #b5e853
	BorderColor #6a9fb5
  }
  nwdiagDiagram {
	network {
			FontColor #151515
	BorderColor #d3f198
	BackgroundColor #d3f198-#b5e853    
		LineColor #b5e853
		LineThickness 1.0
		FontColor #d3f198
	}
	server {
			FontColor #151515
	BorderColor #d3f198
	BackgroundColor #d3f198-#b5e853
	}
	arrow {
		FontColor #d3f198
		LineColor #d3f198
	}
	group {
		BackGroundColor #151515
		LineColor $LIGHT_DARK
		LineThickness 2.0
		Margin 5
		Padding 5
	}
  }
  ganttDiagram {
	task {
			FontColor #151515
	BorderColor #d3f198
	BackgroundColor #d3f198-#b5e853
		LineColor #b5e853
		Margin 10
		Padding 6
	}
	note {
		FontColor $INFO_TEXT
		LineColor #885E7F
		BackGroundColor #aa759f
	}
	separator {
		LineColor #6a9fb5
		BackGroundColor #6a9fb5-#557f91
		FontColor #fefefe
	}
	milestone {
		FontColor #aa759f
		FontSize 16
		FontStyle italic
		BackGroundColor #6a9fb5
		LineColor #557f91
	}
	timeline {
		BackgroundColor #6a9fb5
		FontColor #fefefe
	}
	closed {
		BackgroundColor $WARNING_DARK
		FontColor #151515
	}
  }
</style>
skinparam defaultFontName       "Verdana"
skinparam defaultFontSize       12
skinparam dpi                   100
skinparam shadowing             false
skinparam roundcorner           40
skinparam ParticipantPadding    40
skinparam BoxPadding            40
skinparam Padding               5
skinparam ArrowColor            #eaeaea
skinparam stereotype {
    CBackgroundColor #557f91
    CBorderColor #88b2c4
    ABackgroundColor #a6ba7a
    ABorderColor $SUCCESS_DARK
    IBackgroundColor #bd6768
    IBorderColor $DANGER_DARK
    EBackgroundColor #f6cc91
    EBorderColor $WARNING_DARK
    NBackgroundColor #bb91b2
    NBorderColor #885E7F
}
skinparam title {
	FontColor	                 #b5e853
	BorderColor	                 #b5e853
	FontSize	    	         20
	BorderRoundCorner            8
	BorderThickness 	         1
	BackgroundColor              #151515-black
}


skinparam legend {
	BackgroundColor #6a9fb5
	BorderColor #557f91
	FontColor #eaeaea
}

skinparam swimlane {
	BorderColor #aa759f
	BorderThickness 2
	TitleBackgroundColor  #88b2c4-#6a9fb5
	TitleFontColor #b5e853
}


skinparam activity {
		FontColor #151515
	BorderColor #d3f198
	BackgroundColor #d3f198-#b5e853
	BarColor #90a959
	StartColor #aa759f
	EndColor #aa759f
	DiamondBackgroundColor #88b2c4-#6a9fb5
  	DiamondBorderColor #88b2c4
  	DiamondFontColor #fefefe
}


skinparam participant {
		FontColor #151515
	BorderColor #d3f198
	BackgroundColor #d3f198-#b5e853
	BorderThickness 2
}


skinparam actor {
		FontColor #151515
	BorderColor #d3f198
	BackgroundColor #d3f198-#b5e853
	FontColor #eaeaea
}


skinparam arrow {
	Thickness 3
	Color #b5e853
	FontColor $FGCOLOR
}


skinparam sequence {
	BorderColor #b5e853
	TitleFontColor #b5e853
	BackgroundColor transparent
	StartColor #b5e853
	EndColor #b5e853
	BoxBackgroundColor transparent
	BoxBorderColor #eaeaea
	BoxFontColor #eaeaea
	DelayFontColor #eaeaea
	LifeLineBorderColor #6a9fb5
	LifeLineBorderThickness 2
	LifeLineBackgroundColor #557f91
	GroupBackgroundColor #151515
	GroupBorderColor #eaeaea
	GroupFontColor #eaeaea
	GroupHeaderFontColor #aa759f
	GroupHeaderBackgroundColor transparent
	DividerBackgroundColor #eaeaea
    DividerBorderColor #eaeaea
    DividerBorderThickness 2
    DividerFontColor #151515
	ReferenceBackgroundColor transparent
	ReferenceBorderColor #eaeaea
	ReferenceFontColor #eaeaea
	ReferenceHeaderBackgroundColor #151515
	StereotypeFontColor #151515
}


skinparam partition {
	BorderColor #b5e853
	FontColor #b5e853
	BackgroundColor #151515-black
}


skinparam collections {
		FontColor #151515
	BorderColor #d3f198
	BackgroundColor #d3f198-#b5e853
}


skinparam control {
		FontColor #151515
	BorderColor #d3f198
	BackgroundColor #d3f198-#b5e853
	FontColor #eaeaea
}


skinparam entity {
		FontColor #151515
	BorderColor #d3f198
	BackgroundColor #d3f198-#b5e853
	FontColor #eaeaea
}


skinparam boundary {
		FontColor #151515
	BorderColor #d3f198
	BackgroundColor #d3f198-#b5e853
	FontColor #eaeaea
}


skinparam agent {
	BackgroundColor #f6cc91-#f4bf75
	BorderColor #f6cc91
	FontColor #eaeaea
}


skinparam note {
	BorderThickness 1
	BackgroundColor #bb91b2-#885E7F
	BorderColor #885E7F
	FontColor $WHITE
}


skinparam artifact {
	BackgroundColor #eaeaea
	BorderColor white
	FontColor #151515
}


skinparam component {
		FontColor #151515
	BorderColor #d3f198
	BackgroundColor #d3f198-#b5e853
}


skinparam interface {
	BackgroundColor  #bd6768-#ac4142
	BorderColor  #bd6768
	FontColor #eaeaea
}


skinparam storage {
	BackgroundColor #f6cc91-#f4bf75
  	BorderColor #f6cc91
	FontColor #151515
}


skinparam node {
	BackgroundColor  #151515-black
	BorderColor #d3f198
	FontColor #eaeaea
}


skinparam cloud {
	BackgroundColor transparent
	BorderColor #eaeaea
	FontColor #eaeaea
}


skinparam database {
	BackgroundColor  #151515-black
	BorderColor #d3f198
	FontColor #eaeaea
}


skinparam class {
		FontColor #151515
	BorderColor #d3f198
	BackgroundColor #d3f198-#b5e853
	HeaderBackgroundColor #d3f198-#b5e853
	StereotypeFontColor #eaeaea
	BorderThickness 1
	AttributeFontColor #151515
	AttributeFontSize 11
}


skinparam object {
		FontColor #151515
	BorderColor #d3f198
	BackgroundColor #d3f198-#b5e853
	StereotypeFontColor #eaeaea
	BorderThickness 1
	AttributeFontColor #151515
	AttributeFontSize 11
}


skinparam usecase {
		FontColor #151515
	BorderColor #d3f198
	BackgroundColor #d3f198-#b5e853
	BorderThickness 2
	StereotypeFontColor #b5e853
}


skinparam rectangle {
	BackgroundColor transparent
	BorderColor #b5e853
	BorderThickness 2
	FontColor #6d8b32
	StereotypeFontColor #b5e853
}


skinparam package {
	BackgroundColor #151515
  	BorderColor #b5e853
	FontColor #b5e853
	BorderThickness 2
}


skinparam folder {
	BackgroundColor #151515-black
  	BorderColor #f4bf75
	FontColor #f4bf75
	BorderThickness 2
}


skinparam frame {
	BackgroundColor #151515-black
  	BorderColor #aa759f
	FontColor #aa759f
	BorderThickness 2
}


skinparam state {
		FontColor #151515
	BorderColor #d3f198
	BackgroundColor #d3f198-#b5e853
	StartColor #aa759f
	EndColor #aa759f
	AttributeFontColor #fefefe
	AttributeFontSize 11
}


skinparam queue {
		FontColor #151515
	BorderColor #d3f198
	BackgroundColor #d3f198-#b5e853
}


skinparam card {
	BackgroundColor #bb91b2-#aa759f
	BorderColor #bb91b2
	FontColor $INFO_TEXT
}


skinparam file {
	BackgroundColor #88b2c4-#6a9fb5
	BorderColor #88b2c4
	FontColor #eaeaea
}


skinparam stack {
		FontColor #151515
	BorderColor #d3f198
	BackgroundColor #d3f198-#b5e853
}

<style>
mindmapDiagram, wbsDiagram {
    element {
	    	FontColor #151515
	BorderColor #d3f198
	BackgroundColor #d3f198-#b5e853
	}
	:depth(0) {
        fontSize 16
        fontStyle bold
        fontColor #6a9fb5
    }
    :depth(1) {
        fontSize 14
        padding 5
        fontStyle bold
    }
    :depth(2) {
        fontSize 12
        padding 4
    }
    :depth(3) {
        fontSize 11
        padding 3
        fontColor #aa759f
    }

}
</style>


class Component1 {
  usecase1()
}

class  Component2{
  usecase2()
}
class Person
class RestHelper
class DataAccessHelper

Component1 - -> Person
Component2 - -> Person
Component2 -up-> RestHelper
Component1 -up-> DataAccessHelper
@enduml

PlantUML version 1.2022.13beta7(Unknown compile time)
(GPL source distribution)
Java Runtime: Java(TM) SE Runtime Environment
JVM: Java HotSpot(TM) 64-Bit Server VM
Default Encoding: UTF-8
Language: en
Country: US
--></g></svg>